{
  "name": "simp-haveged",
  "version": "0.7.0",
  "author": "SIMP Team",
  "summary": "Install and manage the HAVEGE daemon.",
  "license": "BSD-2-Clause",
  "source": "https://github.com/simp/puppet-haveged",
  "project_page": "https://github.com/simp/puppet-haveged",
  "issues_url": "https://simp-project.atlassian.net",
  "tags": [
    "simp",
    "haveged",
    "entropy",
    "random"
  ],
  "dependencies": [
    {
      "name": "camptocamp/systemd",
      "version_requirement": ">= 2.2.0 < 3.0.0"
    },
    {
      "name": "simp/simplib",
      "version_requirement": ">= 3.2.0 < 5.0.0"
    },
    {
      "name": "puppetlabs/stdlib",
      "version_requirement": ">= 4.13.1 < 7.0.0"
    }
  ],
  "operatingsystem_support": [
    {
      "operatingsystem": "RedHat",
      "operatingsystemrelease": [
        "7",
        "8"
      ]
    },
    {
      "operatingsystem": "CentOS",
      "operatingsystemrelease": [
        "7",
        "8"
      ]
    },
    {
      "operatingsystem": "OracleLinux",
      "operatingsystemrelease": [
        "7",
        "8"
      ]
    }
  ],
  "requirements": [
    {
      "name": "puppet",
      "version_requirement": ">= 5.0.0 < 8.0.0"
    }
  ]
}
